(module 1pin (layer F.Cu) (tedit 5952389E)
  (fp_text reference REF** (at 0 0.5) (layer F.SilkS)
    (effects (font (size 1 1) (thickness 0.15)))
  )
  (fp_text value 1pin (at 0 -0.5) (layer F.Fab)
    (effects (font (size 1 1) (thickness 0.15)))
  )
  (pad 1 thru_hole circle (at 2.54 -1.27) (size 5 5) (drill 3) (layers *.Cu *.Mask F.SilkS))
)
